[
  {
    "entryname":     "sysbh-default",
    "displayname":   "Sysbh's default docker machine",
    "vmdriver":      "virtualbox",
    "user":          "sysbh",
    "workingdir":    "/Users/sysbh",
    "machinename":   "default",
    "createoptions": ["--virtualbox-hostonly-cidr","192.168.98.1/24"],
    "enabled":       true
  },
  {
    "entryname": "default"
  }
]
